com\sda\rest\dao\model\LoginResult.class
com\sda\rest\dao\ConversationService.class
com\sda\rest\model\Message.class
com\sda\rest\model\User.class
com\sda\rest\model\Location.class
com\sda\rest\dao\location\UserLocationService.class
com\sda\rest\dao\TokenService.class
com\sda\rest\servlets\chat\RegisterServlet.class
com\sda\rest\HibernateSession.class
com\sda\rest\config\Config.class
com\sda\rest\dao\UserLoginService.class
com\sda\rest\model\Token.class
com\sda\rest\dao\model\LOGIN_RESULT.class
com\sda\rest\servlets\chat\ConversationServlet.class
com\sda\rest\servlets\location\LocationServlet.class
com\sda\rest\dao\ChatUsersService.class
com\sda\rest\servlets\chat\ChatServlet.class
